<svg id="Layer_1" data-name="Layer 1" xmlns="http://www.w3.org/2000/svg" xmlns:xlink="http://www.w3.org/1999/xlink" viewBox="0 0 256 256">
  <defs>
    <linearGradient id="linear-gradient" x1="116.19" y1="160.4" x2="135.71" y2="160.4" gradientUnits="userSpaceOnUse">
      <stop offset="0" stop-color="#f2b16f" stop-opacity="0"/>
      <stop offset="1" stop-color="#f2b16f"/>
    </linearGradient>
    <radialGradient id="radial-gradient" cx="125.47" cy="179.19" r="28.73" gradientUnits="userSpaceOnUse">
      <stop offset="0.07" stop-color="#ffd2a6"/>
      <stop offset="1" stop-color="#ffc48a"/>
    </radialGradient>
    <radialGradient id="radial-gradient-2" cx="109.49" cy="88.19" r="29.37" gradientUnits="userSpaceOnUse">
      <stop offset="0" stop-color="#7f2011"/>
      <stop offset="1" stop-color="#4f140b"/>
    </radialGradient>
    <radialGradient id="radial-gradient-3" cx="109.25" cy="133.97" r="10.03" gradientTransform="matrix(0.81, 0.06, 0.06, 0.98, 1.43, -1.13)" xlink:href="#radial-gradient"/>
    <radialGradient id="radial-gradient-4" cx="113.38" cy="131.32" r="11.4" gradientUnits="userSpaceOnUse">
      <stop offset="0.07" stop-color="#ffd2a6"/>
      <stop offset="1" stop-color="#f2b16f"/>
    </radialGradient>
    <radialGradient id="radial-gradient-5" cx="-203.87" cy="151.6" r="10.03" gradientTransform="matrix(-0.81, 0.06, -0.06, 0.98, -3.91, -1.13)" xlink:href="#radial-gradient"/>
    <radialGradient id="radial-gradient-6" cx="-138.08" cy="131.32" r="11.4" gradientTransform="matrix(-1, 0, 0, 1, -2.48, 0)" xlink:href="#radial-gradient-4"/>
    <radialGradient id="radial-gradient-7" cx="124.36" cy="121.25" r="44.34" xlink:href="#radial-gradient"/>
    <radialGradient id="radial-gradient-8" cx="112.45" cy="145.45" r="5.46" gradientUnits="userSpaceOnUse">
      <stop offset="0" stop-color="#f27f6f"/>
      <stop offset="1" stop-color="#f27f6f" stop-opacity="0"/>
    </radialGradient>
    <radialGradient id="radial-gradient-9" cx="136.51" cy="145.45" r="5.46" xlink:href="#radial-gradient-8"/>
    <radialGradient id="radial-gradient-10" cx="127.17" cy="119.82" r="27.93" xlink:href="#radial-gradient-4"/>
    <linearGradient id="linear-gradient-2" x1="113.84" y1="140.42" x2="113.84" y2="124.02" xlink:href="#linear-gradient"/>
    <linearGradient id="linear-gradient-3" x1="-161.44" y1="140.42" x2="-161.44" y2="124.02" gradientTransform="matrix(-1, 0, 0, 1, -26.3, 0)" xlink:href="#linear-gradient"/>
    <radialGradient id="radial-gradient-11" cx="115.7" cy="138.77" r="8.26" xlink:href="#radial-gradient"/>
    <radialGradient id="radial-gradient-12" cx="115.21" cy="135.4" r="2.93" gradientUnits="userSpaceOnUse">
      <stop offset="0" stop-color="#303e4a"/>
      <stop offset="0.98" stop-color="#1d262d"/>
    </radialGradient>
    <radialGradient id="radial-gradient-13" cx="114.08" cy="128.75" r="5.68" xlink:href="#radial-gradient-2"/>
    <radialGradient id="radial-gradient-14" cx="-168.63" cy="138.77" r="8.26" gradientTransform="matrix(-1, 0, 0, 1, -35.35, 0)" xlink:href="#radial-gradient"/>
    <radialGradient id="radial-gradient-15" cx="133.77" cy="135.4" r="2.93" xlink:href="#radial-gradient-12"/>
    <radialGradient id="radial-gradient-16" cx="134.9" cy="128.75" r="5.68" xlink:href="#radial-gradient-2"/>
    <radialGradient id="radial-gradient-17" cx="114.15" cy="98.62" r="40.89" xlink:href="#radial-gradient-2"/>
    <radialGradient id="radial-gradient-18" cx="119.56" cy="138.88" r="11.51" gradientTransform="translate(-8.84 1.12) rotate(2.5)" xlink:href="#radial-gradient-2"/>
    <radialGradient id="radial-gradient-19" cx="-134.85" cy="152.81" r="12.67" gradientTransform="matrix(-0.92, 0.08, 0.08, 1, 8.12, 1.19)" xlink:href="#radial-gradient-2"/>
    <clipPath id="clip-path">
      <ellipse cx="29.78" cy="166.33" rx="22.95" ry="22.61" fill="none" stroke="#fff" stroke-miterlimit="10" stroke-width="2"/>
    </clipPath>
    <clipPath id="clip-path-2">
      <ellipse cx="217.54" cy="77.54" rx="22.95" ry="22.61" fill="none" stroke="#fff" stroke-miterlimit="10" stroke-width="2"/>
    </clipPath>
  </defs>
  <title>image</title>
  <g>
    <circle cx="125.4" cy="134.21" r="106.32" transform="matrix(0.3, -0.96, 0.96, 0.3, -39.94, 214.21)" fill="none" stroke="#fff" stroke-linecap="round" stroke-linejoin="round" stroke-dasharray="7.59 7.59"/>
    <g>
      <path d="M128.92,165.61a18.81,18.81,0,0,0,6.79-1.43,10.08,10.08,0,0,1-.88-4V155.2H116.25v4.94c0,.28,0,.55-.06.83C120.44,163.92,124.9,165.61,128.92,165.61Z" fill="url(#linear-gradient)"/>
      <g>
        <path d="M143.1,167.51c-4.52-1.06-8.16-3.93-8.16-6.41v-8.57h-19v8.57c0,2.48-3.66,5.35-8.16,6.41l-12.93,4.13,30.52,34.22,30.78-34.33Z" fill="url(#radial-gradient)"/>
        <path d="M134.94,152.53v2.82c-3.3,2.89-6.67,4.59-9.52,4.59s-6.16-1.8-9.51-4.8v-2.61Z" fill="#e8b891"/>
        <path d="M153.81,213.89h15.42c-1.11-15.3-2.21-31.93-2.5-33.21a7.06,7.06,0,0,0-.64-1.74v-.06a14.73,14.73,0,0,0-1.05-1.75v0a15.68,15.68,0,0,0-1.4-1.64l-.17-.17a14.29,14.29,0,0,0-1.74-1.51c-.7-.53-1.46-1-2.22-1.46-.4-.23-.75-.4-1.1-.58a5.55,5.55,0,0,0-1.32-.57h0c-.07,0-14.72-4.73-14.72-4.73l-1-.33-4.06-1.28-2.3-.46-1,4.3-1,4.47-1.81,8.15,0,0L125.38,196l-5.82-14.71-1.39-6.11-.42-1.85-1-4.6-1-4.36-2.21.46-4.18,1.35-.69.21-11.81,3.77-.12,0c-.43.11-2.85.92-2.85.92s-.27.11-.29.13,0,0,0,0h0s0,0,0,0h0a15.92,15.92,0,0,0-2.21,1,21.14,21.14,0,0,0-2.21,1.46A14.18,14.18,0,0,0,87.57,175c-.06.06-.18.11-.24.23a1.72,1.72,0,0,0-.46.47,5.65,5.65,0,0,0-1,1.22.9.9,0,0,0-.29.4,5.76,5.76,0,0,0-.93,1.52v.06a6.33,6.33,0,0,0-.64,1.74c-.29,1.28-1.4,17.91-2.45,33.21h72.24Z" fill="#1e1245"/>
        <polygon points="119.54 181.28 109.05 190.86 108.68 168.98 108.63 166.36 109.32 166.15 113.5 164.8 115.71 164.34 116.7 168.7 117.75 173.3 118.17 175.15 119.54 181.28" opacity="0.2"/>
        <polygon points="119.54 181.28 109.77 188.54 109.4 168.99 109.33 164.77 115.18 161.73 116.73 168.69 119.54 181.28" fill="#fafafa"/>
        <polygon points="142.37 166.41 142.32 168.91 141.95 190.86 131.16 181.28 132.99 173.11 133.99 168.64 135.01 164.34 137.31 164.8 141.37 166.08 142.37 166.41" opacity="0.2"/>
        <polygon points="125.37 195.98 119.56 181.26 123.97 195.98 123.97 213.89 125.37 213.89 126.77 213.89 126.77 195.98 131.19 181.26 125.37 195.98" fill="#fafafa"/>
        <polygon points="151.6 213.88 153.92 195.89 153.92 213.88 151.6 213.88" opacity="0.2"/>
        <polygon points="96.89 213.88 96.89 195.89 99.21 213.88 96.89 213.88" opacity="0.2"/>
        <g>
          <path d="M126.34,199a.87.87,0,1,1-.87-.87A.87.87,0,0,1,126.34,199Z" fill="#1c2023"/>
          <path d="M126.34,205.44a.87.87,0,1,1-.87-.87A.87.87,0,0,1,126.34,205.44Z" fill="#1c2023"/>
          <path d="M126.34,211.89a.87.87,0,1,1-.87-.87A.87.87,0,0,1,126.34,211.89Z" fill="#1c2023"/>
        </g>
        <polygon points="141.39 164.77 141.31 168.91 140.94 188.54 131.16 181.28 133.98 168.63 135.53 161.73 141.39 164.77" fill="#fafafa"/>
      </g>
      <g>
        <path d="M157.29,212.46a1.52,1.52,0,0,1-1.52,1.52H95a1.52,1.52,0,0,1-1.52-1.52h0A1.52,1.52,0,0,1,95,210.94h60.74a1.52,1.52,0,0,1,1.52,1.52Z" fill="#f9fbfc"/>
        <path d="M155.77,210.94H126.34v3h29.43a1.52,1.52,0,0,0,0-3Z" fill="#f9fbfc"/>
      </g>
      <g>
        <path d="M155.23,206.49a4.69,4.69,0,0,1-4.69,4.69H100.26a4.69,4.69,0,0,1-4.69-4.69l-3.13-37.76A4.69,4.69,0,0,1,97.13,164h56.54a4.69,4.69,0,0,1,4.69,4.69Z" fill="#1d262d"/>
        <path d="M153.82,205.8a4.44,4.44,0,0,1-4.47,4.4H101.46A4.43,4.43,0,0,1,97,205.8l-3-35.48a4.45,4.45,0,0,1,4.48-4.41h53.85a4.44,4.44,0,0,1,4.47,4.41Z" fill="#f9fbfc"/>
        <path d="M153.82,205.8l3-35.48a4.44,4.44,0,0,0-4.47-4.41h-8.72c1.23,17.36-4.55,41.39-46.68,39.21l.06.68a4.43,4.43,0,0,0,4.47,4.4h47.89A4.44,4.44,0,0,0,153.82,205.8Z" fill="#eff1f3"/>
        <g>
          <path d="M129.36,187.71a4,4,0,1,1-4-4A4,4,0,0,1,129.36,187.71Z" fill="#1d262d"/>
          <path d="M128.09,184.81a4,4,0,0,1-6.24,4.67,4,4,0,0,0,7.51-1.77A3.93,3.93,0,0,0,128.09,184.81Z" fill="#4a5157"/>
        </g>
        <g>
          <rect x="147.99" y="204.04" width="0.94" height="5.08" fill="#1d262d"/>
          <rect x="149.71" y="204.5" width="0.94" height="4.15" fill="#1d262d"/>
          <rect x="146.35" y="204.5" width="0.94" height="4.15" fill="#1d262d"/>
          <rect x="144.68" y="204.97" width="0.94" height="3.21" fill="#1d262d"/>
        </g>
      </g>
      <rect x="55.19" y="220.14" width="140.43" height="27.23" fill="#50281d"/>
      <rect x="55.19" y="220.14" width="140.43" height="5.13" fill="#45201a"/>
      <path d="M205.28,217a3.13,3.13,0,0,1-3.13,3.13H48.65A3.13,3.13,0,0,1,45.52,217h0a3.13,3.13,0,0,1,3.13-3.13h153.5a3.13,3.13,0,0,1,3.13,3.13Z" fill="#50281d"/>
      <g>
        <circle cx="124.76" cy="100.26" r="14.02" fill="url(#radial-gradient-2)"/>
        <g>
          <g>
            <path d="M107.7,136.68c1,3.5,0,6.87-2.23,7.51s-4.86-1.69-5.86-5.2,0-6.87,2.23-7.51S106.7,133.17,107.7,136.68Z" fill="url(#radial-gradient-3)"/>
            <path d="M106,137.17c.58,2,0,4-1.28,4.31s-2.79-1-3.37-3,0-3.95,1.28-4.32S105.4,135.15,106,137.17Z" fill="url(#radial-gradient-4)"/>
          </g>
          <g>
            <path d="M141.28,136.68c-1,3.5,0,6.87,2.23,7.51s4.86-1.69,5.86-5.2,0-6.87-2.23-7.51S142.28,133.17,141.28,136.68Z" fill="url(#radial-gradient-5)"/>
            <path d="M143,137.17c-.58,2,0,4,1.28,4.31s2.79-1,3.37-3,0-3.95-1.28-4.32S143.58,135.15,143,137.17Z" fill="url(#radial-gradient-6)"/>
          </g>
        </g>
        <ellipse cx="124.49" cy="132.56" rx="21.41" ry="27.87" fill="url(#radial-gradient-7)"/>
        <circle cx="112.45" cy="145.45" r="5.46" opacity="0.32" fill="url(#radial-gradient-8)"/>
        <circle cx="136.51" cy="145.45" r="5.46" opacity="0.32" fill="url(#radial-gradient-9)"/>
        <path d="M127,146.54c0,.26-4.92.26-4.92,0a2.8,2.8,0,0,1,4.92,0Z" fill="url(#radial-gradient-10)"/>
        <g>
          <path d="M122.94,136.38a8.28,8.28,0,0,1-8.12,8.61c-4.57,0-10.08-4.76-10.08-9.59s3.59-7.9,10.08-7.9S122.94,131.55,122.94,136.38Z" fill="url(#linear-gradient-2)"/>
          <path d="M126,136.38a8.28,8.28,0,0,0,8.12,8.61c4.57,0,10.08-4.76,10.08-9.59s-3.59-7.9-10.08-7.9S126,131.55,126,136.38Z" fill="url(#linear-gradient-3)"/>
        </g>
        <g>
          <path d="M125.86,149.65c-.68-.34-1.21.28-1.37.51-.16-.23-.69-.85-1.37-.51a6.18,6.18,0,0,1-2.79.51c.79,2.8,3.73,2.56,4.16,2.51s3.37.29,4.16-2.51A6.18,6.18,0,0,1,125.86,149.65Z" fill="#d93029"/>
          <path d="M120.73,150.46a11.2,11.2,0,0,0,7.64,0A7.26,7.26,0,0,1,120.73,150.46Z" fill="#771717"/>
        </g>
        <g>
          <g>
            <path d="M118.58,135.84a3.37,3.37,0,1,1-3.37-3.37A3.37,3.37,0,0,1,118.58,135.84Z" fill="url(#radial-gradient-11)"/>
            <path d="M118.14,135.4a2.93,2.93,0,1,1-2.93-2.93A2.93,2.93,0,0,1,118.14,135.4Z" fill="url(#radial-gradient-12)"/>
            <path d="M114.44,134.51a.65.65,0,1,1-.65-.65A.65.65,0,0,1,114.44,134.51Z" fill="#f9fbfc"/>
            <path d="M110,127.3a12.72,12.72,0,0,1,8.19.07c3.33,1.2,3.53,2.13,3.59,2.86.21,2.29-1.89-2.63-9.71-2.26-4.2.2-5.8,2.66-5.8,2.66S106.91,128.63,110,127.3Z" fill="url(#radial-gradient-13)"/>
            <path d="M110.41,134.26a7,7,0,0,1,6.92-1.76c1.09.33,1.84,1.33,1.47,1.79A10.72,10.72,0,0,0,110.41,134.26Z" fill="#1d262d"/>
          </g>
          <g>
            <path d="M130.4,135.84a3.37,3.37,0,1,0,3.37-3.37A3.37,3.37,0,0,0,130.4,135.84Z" fill="url(#radial-gradient-14)"/>
            <path d="M130.84,135.4a2.93,2.93,0,1,0,2.93-2.93A2.93,2.93,0,0,0,130.84,135.4Z" fill="url(#radial-gradient-15)"/>
            <path d="M131.51,134.51a.65.65,0,1,0,.65-.65A.65.65,0,0,0,131.51,134.51Z" fill="#f9fbfc"/>
            <path d="M138.94,127.3a12.72,12.72,0,0,0-8.19.07c-3.33,1.2-3.53,2.13-3.59,2.86-.21,2.29,1.89-2.63,9.71-2.26,4.2.2,5.8,2.66,5.8,2.66S142.07,128.63,138.94,127.3Z" fill="url(#radial-gradient-16)"/>
            <path d="M138.57,134.26a7,7,0,0,0-6.92-1.76c-1.09.33-1.84,1.33-1.47,1.79A10.72,10.72,0,0,1,138.57,134.26Z" fill="#1d262d"/>
          </g>
        </g>
        <path d="M106.87,127.25a27.34,27.34,0,0,0,2.56-3.6c1.34-2.6,1.22-5.68,1.06-8.6,1.46,3.12,4.55,5.17,7.71,6.52a31.53,31.53,0,0,0,8,2.25c4.18.6,8.5.36,12.53,1.62s7.85,4.66,7.76,8.87c2.19-7.08,5-15.68,2.58-22.69-4.83-13.72-19.35-19.35-35.49-14-6.84,2.29-12.45,7.62-13.75,14.57-1.18,6.31-.38,13.32,1,19.54.5,2.22,1,4.45,1.63,6.65.06.22.8,2.7.78,1.76C103.08,132.56,105.86,128.62,106.87,127.25Z" fill="url(#radial-gradient-17)"/>
        <path d="M105,140.15c.8,3.8,1.26,8-.71,11.35a16.92,16.92,0,0,0-1.55,2.66,4.36,4.36,0,0,0,.8,4.27,2.64,2.64,0,0,0,1.82,1,1.53,1.53,0,0,0,1.58-1.15,1.64,1.64,0,0,1-.13,2,2.51,2.51,0,0,1-2,.78c-2.06,0-3.72-2-4.06-4a11,11,0,0,1,1.14-6,24.61,24.61,0,0,0,2.11-5.82c.62-4.08-1.47-8.05-1.87-12.16-.15-1.48.08-3.29,1.52-4A100.87,100.87,0,0,0,105,140.15Z" fill="url(#radial-gradient-18)"/>
        <path d="M144.62,136.55c-.58,3.82-2.84,8.64-.88,11.91a17.59,17.59,0,0,1,1.55,2.61,4.61,4.61,0,0,1-.56,4.29,5.55,5.55,0,0,0-1,2c-.65,2.52,1,3.79,2.24,3.43.57-.16,1.47-3.18.33-2.33a1.34,1.34,0,0,1-1.85-.86c-.53-2,2.58-1.65,2.81-3.7a11.76,11.76,0,0,0-1.31-6c-.84-1.88.19-4.31-.18-6.35-.76-4,1-8.09,1.21-12.21.08-1.48-.21-3.28-1.58-3.9A107.32,107.32,0,0,1,144.62,136.55Z" fill="url(#radial-gradient-19)"/>
        <g>
          <path d="M151.94,138.26c.56-5.91-1.45-6.21-3.05-6.37s-1.7,2.55-2,5.86-.78,6,.83,6.15S151.31,145,151.94,138.26Z" fill="#f9fbfc"/>
          <path d="M97,138.26c-.56-5.91,1.45-6.21,3-6.37s1.7,2.55,2,5.86.78,6-.83,6.15S97.67,145,97,138.26Z" fill="#f9fbfc"/>
          <path d="M100.43,135.49a23.45,23.45,0,0,1-.69-5.4c0-16.69,10.41-28.8,24.75-28.8s24.75,12.11,24.75,28.8a26.59,26.59,0,0,1-.56,5.4h2.4a28.49,28.49,0,0,0,.52-5.4c0-18.06-11.4-31.17-27.11-31.17S97.37,112,97.37,130.09a28.49,28.49,0,0,0,.53,5.4Z" fill="#f9fbfc"/>
          <path d="M149.38,143.09c0,.08-1.27,7.19-1.64,8.21-.31.43-3.84,1.15-8.18,1.82a9.51,9.51,0,0,1-4.14-.32,2.69,2.69,0,0,0-.87-.12c-1.1,0-2,.59-2,1.29s.9,1.27,2,1.26a2.8,2.8,0,0,0,1.32-.33,7.76,7.76,0,0,1,2.76-1.1c4.37-.64,9.3-1.53,9.59-2.3.39-1.08,1.62-8,1.67-8.31Z" fill="#f9fbfc"/>
          <path d="M103.81,137.36c-.21-2.1-.38-4.06-.59-5.74-.32-2.5-3.32-2.2-3.14.31.13,1.69.35,3.65.56,5.75s.38,4.06.59,5.74c.32,2.5,3.32,2.2,3.14-.31C104.24,141.42,104,139.46,103.81,137.36Z" fill="#1d262d"/>
          <path d="M145.17,137.36c.21-2.1.38-4.06.59-5.74.32-2.5,3.32-2.2,3.14.31-.13,1.69-.35,3.65-.56,5.75s-.38,4.06-.59,5.74c-.32,2.5-3.32,2.2-3.14-.31C144.73,141.42,145,139.46,145.17,137.36Z" fill="#1d262d"/>
        </g>
      </g>
    </g>
    <g>
      <g>
        <ellipse cx="37.15" cy="77.54" rx="22.95" ry="22.61" fill="#ff9121"/>
        <ellipse cx="37.15" cy="77.54" rx="22.95" ry="22.61" fill="none" stroke="#fff" stroke-miterlimit="10" stroke-width="2"/>
      </g>
      <g>
        <path d="M51.49,86.23s-.34.56-.9,1.29l-.5.64C49,89.51,47.37,91,46,90.84c-8.65-1.36-18.89-9-23-19.2-.84-2.1.7-4.43,2-5.91.19-.22.39-.43.57-.6a11.6,11.6,0,0,1,1-.9l4.83,7.29s-.25.7-.48,1.54c-.08.3-.16.62-.23.94a4,4,0,0,0-.13,1.46c.53,2.44,6.38,8.19,8.83,8.47a6.22,6.22,0,0,0,2.1-.55h0l.87-.35c1-.42,1.78-.82,1.78-.82Z" fill="#fff"/>
        <g>
          <path d="M29.54,67.53c1.34,2,2.18,3.82,1.88,4s-1.62-1.27-3-3.29-2.19-3.81-1.89-4S28.2,65.52,29.54,67.53Z" fill="#bcbcbc"/>
          <path d="M47.51,84.77c-2-1.11-3.56-2.25-3.39-2.55s1.94.35,4,1.46,3.56,2.25,3.4,2.55S49.55,85.87,47.51,84.77Z" fill="#bcbcbc"/>
        </g>
      </g>
    </g>
    <g>
      <g>
        <ellipse cx="121.41" cy="31.24" rx="22.95" ry="22.61" fill="#be1e2d"/>
        <ellipse cx="121.41" cy="31.24" rx="22.95" ry="22.61" fill="none" stroke="#fff" stroke-miterlimit="10" stroke-width="2"/>
      </g>
      <g>
        <text transform="translate(113.08 34.66)" font-size="13.88" fill="#fff" font-family="Montserrat-Black, Montserrat" font-weight="800">24</text>
        <g>
          <path d="M134.11,27.24a13.56,13.56,0,0,0-9.53-9.34,13.89,13.89,0,0,0-13.76,4,13.9,13.9,0,0,0-2.74,4.29,14.22,14.22,0,0,0-1,5l2.34,0a12.08,12.08,0,0,1,2.8-8.15,12.42,12.42,0,0,1,7.64-4.35,12.69,12.69,0,0,1,8.8,1.84,13,13,0,0,1,5.27,6.67l-2.14.32,2.9,3.65,1.71-4.33Z" fill="#fff"/>
          <path d="M133.45,31.23a12.08,12.08,0,0,1-2.8,8.15A12.43,12.43,0,0,1,123,43.72a12.74,12.74,0,0,1-8.8-1.83,13,13,0,0,1-5.27-6.68l2.14-.31-2.9-3.65-1.71,4.33,2.24-.33a13.45,13.45,0,0,0,5.1,7.24,13.27,13.27,0,0,0,4.43,2.09,13.84,13.84,0,0,0,13.76-4,14.24,14.24,0,0,0,3.79-9.31Z" fill="#fff"/>
        </g>
      </g>
    </g>
    <g>
      <g>
        <ellipse cx="226.22" cy="166.33" rx="22.95" ry="22.61" fill="#009444"/>
        <ellipse cx="226.22" cy="166.33" rx="22.95" ry="22.61" fill="none" stroke="#fff" stroke-miterlimit="10" stroke-width="2"/>
      </g>
      <path d="M235.71,168.61a14.34,14.34,0,0,0,3.92-1.22,12.5,12.5,0,0,0,0-2.12,14.87,14.87,0,0,0-3.93-1.22,10.66,10.66,0,0,0-.47-1.45,11,11,0,0,0-.7-1.37,14.32,14.32,0,0,0,1.91-3.64,12.5,12.5,0,0,0-1.5-1.5,14.45,14.45,0,0,0-3.63,1.92,11.77,11.77,0,0,0-1.37-.7,10.36,10.36,0,0,0-1.46-.47,14.31,14.31,0,0,0-1.21-3.92,12.51,12.51,0,0,0-2.12,0,14.51,14.51,0,0,0-1.22,3.93,10.79,10.79,0,0,0-1.46.47,9.7,9.7,0,0,0-1.36.7,14.67,14.67,0,0,0-3.64-1.92,14.16,14.16,0,0,0-1.5,1.5,14.34,14.34,0,0,0,1.92,3.64,9.81,9.81,0,0,0-.7,1.37,10.66,10.66,0,0,0-.47,1.45,14.87,14.87,0,0,0-3.93,1.22,13.64,13.64,0,0,0,0,2.12,14.51,14.51,0,0,0,3.93,1.22,10.79,10.79,0,0,0,.47,1.46,9.7,9.7,0,0,0,.7,1.36,14.34,14.34,0,0,0-1.92,3.64,13.28,13.28,0,0,0,1.5,1.5,14.34,14.34,0,0,0,3.64-1.92,9.7,9.7,0,0,0,1.36.7,10.79,10.79,0,0,0,1.46.47,14.51,14.51,0,0,0,1.22,3.93,13.64,13.64,0,0,0,2.12,0,14.48,14.48,0,0,0,1.21-3.93,9.56,9.56,0,0,0,2.83-1.17,14.34,14.34,0,0,0,3.64,1.92,13.19,13.19,0,0,0,1.49-1.5,14.32,14.32,0,0,0-1.91-3.64,9.36,9.36,0,0,0,1.17-2.82Zm-7.07,3.57a6.33,6.33,0,1,1-4.84-11.69,6.32,6.32,0,0,1,8.26,8.26A6.32,6.32,0,0,1,228.64,172.18Z" fill="#fff"/>
    </g>
    <g>
      <ellipse cx="29.78" cy="166.33" rx="22.95" ry="22.61" fill="#00a4db"/>
      <g>
        <g clip-path="url(#clip-path)">
          <g>
            <g>
              <g>
                <path d="M19,161.12s-3.12,5.49.41,6.57c0,0-2.22,3.54,1.24,4.81,2.78,1,3.84-.63,3.84-.63s5.57,1.92,4.3-4.11C27.62,162.29,19,161.12,19,161.12Z" fill="#7d450b"/>
                <path d="M40.58,161.12s3.12,5.49-.41,6.57c0,0,2.22,3.54-1.24,4.81-2.77,1-3.84-.63-3.84-.63s-5.56,1.92-4.3-4.11C31.94,162.29,40.58,161.12,40.58,161.12Z" fill="#7d450b"/>
              </g>
              <g>
                <path d="M20.31,161.61c-.5.12-.68,1.16-.39,2.32s.92,2,1.42,1.89.67-1.16.38-2.32S20.8,161.49,20.31,161.61Z" fill="#edbba4"/>
                <path d="M39.26,161.61c-.5-.12-1.13.73-1.42,1.89s-.11,2.2.39,2.32,1.13-.73,1.42-1.89S39.76,161.73,39.26,161.61Z" fill="#edbba4"/>
              </g>
              <rect x="27.54" y="170.38" width="4.49" height="5.53" fill="#edbba4"/>
              <ellipse cx="29.78" cy="161.89" rx="8.56" ry="9.45" fill="#ffc9b0"/>
              <path d="M39.78,159.28s.51-6.28-3.23-6.9c0,0-1.1-3.92-6.77-2.09-5.66-1.83-6.76,2.09-6.76,2.09-3.75.62-3.24,6.9-3.24,6.9-1.25-.18-1.87,1.93-.84,2.61,3.48,2.3,6.36-2.43,6.36-2.43,4.08.65,4.48-2.78,4.48-2.78s.41,3.43,4.49,2.78c0,0,2.88,4.73,6.36,2.43C41.66,161.21,41,159.1,39.78,159.28Z" fill="#7d450b"/>
              <path d="M36.23,178v-2.9l-.74-.32h0c-.38-.15-.79-.28-1.2-.4h0a16.76,16.76,0,0,0-9,0h0c-.41.12-.81.25-1.2.4h0l-.74.32V178l6.45,4.38Z" fill="#ffc9b0"/>
              <path d="M36.23,175.12V178l-6.45,4.38L23.33,178v-2.9a8.18,8.18,0,0,0-5.11,7.56v6.67H41.35v-6.67a8.17,8.17,0,0,0-5-7.52Z" fill="#e8b817"/>
            </g>
            <path d="M18.22,182.68v6.67H29.78V150.29c-5.66-1.83-6.76,2.09-6.76,2.09-3.75.62-3.24,6.9-3.24,6.9-1.14-.16-1.75,1.56-1.08,2.39-.68,1.41-2.15,5.15.69,6,0,0-2.22,3.54,1.24,4.81,2.78,1,3.84-.63,3.84-.63a5.17,5.17,0,0,0,3.07.07v2a14.33,14.33,0,0,0-2.24.46h0c-.41.12-.81.25-1.2.4h0l-.74.32A8.18,8.18,0,0,0,18.22,182.68Z" fill="#fff" opacity="0.2"/>
          </g>
        </g>
        <ellipse cx="29.78" cy="166.33" rx="22.95" ry="22.61" fill="none" stroke="#fff" stroke-miterlimit="10" stroke-width="2"/>
      </g>
    </g>
    <g>
      <ellipse cx="217.54" cy="77.54" rx="22.95" ry="22.61" fill="#d7df23"/>
      <g>
        <g clip-path="url(#clip-path-2)">
          <g>
            <g>
              <g>
                <path d="M208,71.53v2.21l2.21,2s-.12-5.23-.24-5.19S208,71.53,208,71.53Z" fill="#8f3820"/>
                <path d="M227.08,71.53v2.21l-2.21,2s.12-5.23.24-5.19S227.08,71.53,227.08,71.53Z" fill="#8f3820"/>
              </g>
              <g>
                <path d="M208.06,72.41c-.49.12-.67,1.16-.38,2.32s.92,2,1.42,1.89.67-1.16.38-2.32S208.56,72.29,208.06,72.41Z" fill="#edbba4"/>
                <path d="M227,72.41c-.5-.12-1.14.73-1.42,1.89s-.11,2.2.39,2.32,1.13-.73,1.41-1.89S227.52,72.53,227,72.41Z" fill="#edbba4"/>
              </g>
              <rect x="215.29" y="81.18" width="4.49" height="5.53" fill="#edbba4"/>
              <ellipse cx="217.54" cy="72.69" rx="8.56" ry="9.45" fill="#ffc9b0"/>
              <path d="M217.54,61.09c-7,0-9.58,6.12-9.58,9.48v1.35c5.65-.83,9.58-5.86,9.58-5.86s3.93,5,9.58,5.86V70.57C227.12,67.21,224.5,61.09,217.54,61.09Z" fill="#8f3820"/>
              <path d="M223.25,85.6h0c-.39-.15-.79-.28-1.2-.4a5.78,5.78,0,0,1-9,0c-.41.12-.81.25-1.2.4h0C208.34,87,206,89.68,206,93.47v6.68H229.1V93.47C229.1,89.68,226.75,87,223.25,85.6Z" fill="#212842"/>
              <path d="M222.05,85.2a17,17,0,0,0-9,0,5.86,5.86,0,0,0,9,0Z" fill="#ffc9b0"/>
              <path d="M226.1,71.92s-.64,5-3.26,6.38c0,0-1.48-2-5.3-1.2-3.82-.8-5.3,1.2-5.3,1.2-2.62-1.36-3.25-6.38-3.25-6.38a14,14,0,0,0,0,6.68c1.66,5.43,6.92,7.78,8.55,7.78s6.89-2.35,8.56-7.78A14.18,14.18,0,0,0,226.1,71.92Zm-8.56,8.5a2.88,2.88,0,0,1-2.61-1.52,9.72,9.72,0,0,0,2.61,0,9.78,9.78,0,0,0,2.62,0A2.9,2.9,0,0,1,217.54,80.42Z" fill="#8f3820"/>
              <path d="M222.76,85.44c-.24-.09-.48-.18-.74-.25a5.78,5.78,0,0,1-9,0c-.25.07-.49.16-.74.25v14.71h10.44Z" fill="#939bb8"/>
            </g>
            <path d="M217.54,61.09c-7,0-9.58,6.12-9.58,9.48v1.35h0v.53c-.45.19-.59,1.18-.32,2.29a3.3,3.3,0,0,0,.92,1.73A9.94,9.94,0,0,0,209,78.6,11.74,11.74,0,0,0,213.94,85c-.3.06-.59.13-.88.21h0c-.25.07-.49.16-.74.25s-.31.09-.46.15h0C208.34,87,206,89.68,206,93.47v6.68h11.56Z" fill="#fff" opacity="0.2"/>
          </g>
        </g>
        <ellipse cx="217.54" cy="77.54" rx="22.95" ry="22.61" fill="none" stroke="#fff" stroke-miterlimit="10" stroke-width="2"/>
      </g>
    </g>
  </g>
</svg>
