<svg id="Layer_1" data-name="Layer 1" xmlns="http://www.w3.org/2000/svg" xmlns:xlink="http://www.w3.org/1999/xlink" viewBox="0 0 256 256">
  <defs>
    <clipPath id="clip-path">
      <circle cx="212.96" cy="121.01" r="32.93" transform="translate(-23.2 186.03) rotate(-45)" fill="none"/>
    </clipPath>
    <clipPath id="clip-path-2">
      <circle cx="43.04" cy="53.59" r="32.44" transform="translate(-16.92 19.99) rotate(-21.96)" fill="none"/>
    </clipPath>
    <clipPath id="clip-path-3">
      <circle cx="145.96" cy="49.49" r="32.93" transform="translate(63.17 179.49) rotate(-76.24)" fill="none"/>
    </clipPath>
  </defs>
  <title>image</title>
  <g>
    <line x1="18.91" y1="240.24" x2="236.03" y2="240.24" fill="none" stroke="#6a1503" stroke-miterlimit="10" stroke-width="2"/>
    <g>
      <g>
        <rect x="76.84" y="19.07" width="18.19" height="0.88" fill="#fff"/>
        <rect x="76.84" y="21.74" width="18.19" height="0.88" fill="#fff"/>
        <rect x="76.84" y="24.42" width="18.19" height="0.88" fill="#fff"/>
        <rect x="76.84" y="27.09" width="18.19" height="0.88" fill="#fff"/>
      </g>
      <path d="M75.31,36.53A.43.43,0,0,1,75,36.2l-1.34-6.27a2.43,2.43,0,0,1-.24-1.07V18.64a2.47,2.47,0,0,1,2.46-2.47H96a2.48,2.48,0,0,1,2.47,2.47V28.86A2.47,2.47,0,0,1,96,31.32H81l-5.21,5.1a.39.39,0,0,1-.3.13Zm.57-19.47a1.58,1.58,0,0,0-1.58,1.58V28.86a1.51,1.51,0,0,0,.18.72s0,.08,0,.11l1.18,5.54,4.76-4.66a.44.44,0,0,1,.31-.13H96a1.58,1.58,0,0,0,1.58-1.58V18.64A1.58,1.58,0,0,0,96,17.06Z" fill="#fff"/>
    </g>
    <g>
      <rect x="77.32" y="70.08" width="6.61" height="1.84" fill="#fff"/>
      <rect x="79.7" y="67.7" width="1.84" height="6.61" fill="#fff"/>
    </g>
    <rect x="20.08" y="99.39" width="24.5" height="0.79" fill="#fff"/>
    <rect x="221.39" y="164.33" width="24.5" height="0.79" fill="#fff"/>
    <rect x="183.18" y="61.72" width="13.88" height="0.79" fill="#fff"/>
    <path d="M243.77,156.89a2.12,2.12,0,1,1,2.12-2.12A2.12,2.12,0,0,1,243.77,156.89Zm0-3.44a1.33,1.33,0,1,0,1.33,1.32A1.32,1.32,0,0,0,243.77,153.45Z" fill="#fff"/>
    <path d="M148.26,93.53a2.12,2.12,0,1,1,2.11-2.12A2.12,2.12,0,0,1,148.26,93.53Zm0-3.45a1.33,1.33,0,1,0,1.32,1.33A1.34,1.34,0,0,0,148.26,90.08Z" fill="#fff"/>
    <path d="M226.3,47.75a2.12,2.12,0,1,1,2.2-2A2.12,2.12,0,0,1,226.3,47.75Zm.14-3.44a1.33,1.33,0,1,0,1.27,1.38A1.33,1.33,0,0,0,226.44,44.31Z" fill="#fff"/>
    <path d="M44.86,96.27A2.12,2.12,0,1,1,47,94.15,2.12,2.12,0,0,1,44.86,96.27Zm0-3.44a1.33,1.33,0,0,0,0,2.65,1.33,1.33,0,1,0,0-2.65Z" fill="#fff"/>
    <path d="M106.38,46.66a2.12,2.12,0,1,1,2.12-2.12A2.12,2.12,0,0,1,106.38,46.66Zm0-3.44a1.33,1.33,0,1,0,1.33,1.32A1.33,1.33,0,0,0,106.38,43.22Z" fill="#fff"/>
    <g>
      <path d="M181.55,40a.42.42,0,0,1-.17-.44l1.28-5.31c-3.34-1.89-5.26-4.69-5.26-7.72,0-5.47,6.35-9.92,14.15-9.92s14.14,4.45,14.14,9.92-6.35,9.91-14.14,9.91a20.41,20.41,0,0,1-3.77-.35L182,40a.48.48,0,0,1-.24.07A.43.43,0,0,1,181.55,40Zm6.22-4.78a18.86,18.86,0,0,0,3.78.38c7.33,0,13.29-4.07,13.29-9.07s-6-9.07-13.29-9.07-13.3,4.07-13.3,9.07c0,2.79,1.86,5.4,5.1,7.13a.42.42,0,0,1,.21.48l-1.1,4.55,5-3.4a.4.4,0,0,1,.24-.07Z" fill="#fff"/>
      <path d="M196,26.36A2.07,2.07,0,1,1,198,28.43,2.07,2.07,0,0,1,196,26.36Zm.85,0A1.22,1.22,0,1,0,198,25.14,1.22,1.22,0,0,0,196.8,26.36Z" fill="#fff"/>
      <path d="M190.12,26.36a2.07,2.07,0,1,1,2.06,2.07A2.06,2.06,0,0,1,190.12,26.36Zm.84,0a1.22,1.22,0,1,0,1.22-1.22A1.22,1.22,0,0,0,191,26.36Z" fill="#fff"/>
      <path d="M184.28,26.36a2.07,2.07,0,1,1,2.06,2.07A2.06,2.06,0,0,1,184.28,26.36Zm.84,0a1.23,1.23,0,1,0,1.22-1.22A1.22,1.22,0,0,0,185.12,26.36Z" fill="#fff"/>
    </g>
    <g>
      <path d="M184.34,85.08h-9.8a.45.45,0,0,1-.45-.44.44.44,0,0,1,.41-.44h9.87a.43.43,0,0,1,.41.44A.44.44,0,0,1,184.34,85.08Z" fill="#fff"/>
      <path d="M184.34,94.15h-9.8a2.05,2.05,0,0,1-2-2.05V86.25a2.14,2.14,0,0,1,.28-1,.45.45,0,0,1,.28-.2.43.43,0,0,1,.33,0l6.06,3.61,6.05-3.61a.45.45,0,0,1,.61.15,2.05,2.05,0,0,1,.29,1V92.1A2.05,2.05,0,0,1,184.34,94.15Zm-11-8.07a1,1,0,0,0,0,.17V92.1a1.17,1.17,0,0,0,1.17,1.16h9.8a1.16,1.16,0,0,0,1.16-1.16V86.25a1,1,0,0,0,0-.17l-5.82,3.48a.47.47,0,0,1-.46,0Z" fill="#fff"/>
      <path d="M179.44,89.62a.46.46,0,0,1-.23-.06l-6.28-3.75a.45.45,0,0,1-.16-.61,2.1,2.1,0,0,1,1.77-1h9.8a2.08,2.08,0,0,1,1.76,1,.44.44,0,0,1-.15.61l-6.28,3.75A.46.46,0,0,1,179.44,89.62Zm-5.6-4.3,5.6,3.34,5.6-3.34a1.18,1.18,0,0,0-.7-.24h-9.8A1.16,1.16,0,0,0,173.84,85.32Z" fill="#fff"/>
    </g>
    <g>
      <path d="M139.06,169.13l-11.74-1.61a3.06,3.06,0,0,1-2.6-3.43h0a3,3,0,0,1,3.43-2.6l11.74,1.61a3,3,0,0,1,2.6,3.43h0A3,3,0,0,1,139.06,169.13Z" fill="#ffccbc"/>
      <circle cx="141.9" cy="166.17" r="4.05" fill="#ffccbc"/>
      <path d="M148.54,164.36l-4.28,0a1,1,0,0,1-1-.86h0a.94.94,0,0,1,1-.87h4.28a1,1,0,0,1,1,.86h0A1,1,0,0,1,148.54,164.36Z" fill="#ffccbc"/>
      <path d="M144,161.9l-2.07,2.38a1.12,1.12,0,0,1-1.56.11h0a1.11,1.11,0,0,1-.11-1.56l2.08-2.38a1.11,1.11,0,0,1,1.56-.11h0A1.12,1.12,0,0,1,144,161.9Z" fill="#ffccbc"/>
      <path d="M149.44,166.56h-4.28a.94.94,0,0,1-1-.85h0a1,1,0,0,1,1-.87h4.27a1,1,0,0,1,1,.86h0A1,1,0,0,1,149.44,166.56Z" fill="#ffccbc"/>
      <path d="M148.89,168.7l-4.25-.43a.92.92,0,0,1-.89-1h0a1,1,0,0,1,1.13-.75l4.25.43a.91.91,0,0,1,.88,1h0A1,1,0,0,1,148.89,168.7Z" fill="#ffccbc"/>
      <path d="M147.24,170.56,143,170.1a.91.91,0,0,1-.87-1h0a1,1,0,0,1,1.13-.74l4.24.47a.9.9,0,0,1,.88,1h0A1,1,0,0,1,147.24,170.56Z" fill="#ffccbc"/>
    </g>
    <path d="M111.16,167h0a4.88,4.88,0,0,1-6.23-2.92l-9.61-26.55a4.88,4.88,0,0,1,2.92-6.23h0a4.88,4.88,0,0,1,6.23,2.92l2.43,6.73,7.18,19.82A4.88,4.88,0,0,1,111.16,167Z" fill="#ededed"/>
    <path d="M104.31,162h0a4.88,4.88,0,0,1,5.4-4.29l27,3.07-1.08,9.5a.18.18,0,0,1-.19.15l-26.86-3A4.88,4.88,0,0,1,104.31,162Z" fill="#ededed"/>
    <g>
      <circle cx="103.69" cy="111.34" r="4.68" transform="translate(-28.16 187.26) rotate(-76.97)" fill="#962d46"/>
      <g opacity="0.15">
        <path d="M100.33,111.34a4.68,4.68,0,0,1,4-4.63,4.68,4.68,0,1,0,0,9.26A4.68,4.68,0,0,1,100.33,111.34Z" fill="#1d1d1b"/>
      </g>
      <path d="M106.38,111.44a2.71,2.71,0,1,1-2.7-2.71A2.7,2.7,0,0,1,106.38,111.44Z" fill="#aa4b67"/>
    </g>
    <rect x="79.68" y="97.07" width="26.37" height="26.48" rx="13.18" transform="translate(-2.54 2.19) rotate(-1.33)" fill="#2e2c47"/>
    <g>
      <g>
        <rect x="97.25" y="197.26" width="4.77" height="17.12" fill="#c6c6c6"/>
        <rect x="95.75" y="210.31" width="7.76" height="14.2" fill="#706f6f"/>
        <path d="M119.78,229.53h-1.7v-2.71a2.24,2.24,0,0,0-2.25-2.24H83.77a2.24,2.24,0,0,0-2.24,2.24v2.71h-1.7v-2.71a4,4,0,0,1,3.94-3.95h32.06a4,4,0,0,1,4,3.95Z" fill="#575756"/>
        <g>
          <circle cx="80.62" cy="232.06" r="3.97" fill="#dadada"/>
          <path d="M85.09,232.06a4.47,4.47,0,0,0-8.93,0Z" fill="#575756"/>
        </g>
        <g>
          <circle cx="118.43" cy="232.06" r="3.97" fill="#dadada"/>
          <path d="M122.89,232.06a4.47,4.47,0,0,0-8.92,0Z" fill="#575756"/>
        </g>
        <g>
          <circle cx="99.06" cy="232.06" r="3.97" fill="#dadada"/>
          <path d="M103.53,232.06a4.47,4.47,0,0,0-8.93,0Z" fill="#575756"/>
        </g>
        <rect x="98.33" y="223.57" width="1.48" height="5.96" fill="#575756"/>
      </g>
      <path d="M111.22,203.44H87.83a3.1,3.1,0,0,1-3.08-3.09h0a3.1,3.1,0,0,1,3.08-3.09h23.39a3.1,3.1,0,0,1,3.09,3.09h0A3.1,3.1,0,0,1,111.22,203.44Z" fill="#706f6f"/>
      <g>
        <polygon points="64.52 135.2 96.72 135.2 96.72 196.41 78.73 196.41 64.68 182.36 64.52 135.2" fill="#b2b2b2"/>
        <path d="M125.29,200.35H88.69a3.94,3.94,0,1,1,0-7.87h36.6a3.94,3.94,0,1,1,0,7.87Z" fill="#b2b2b2"/>
        <path d="M88.69,200.35H84.18a23.65,23.65,0,0,1-23.63-23.62V139.14a3.94,3.94,0,0,1,7.88,0v37.59a15.77,15.77,0,0,0,15.75,15.75h4.51a3.94,3.94,0,0,1,0,7.87Z" fill="#ededed"/>
      </g>
    </g>
    <g>
      <path d="M140.31,231h0a2.58,2.58,0,0,1-2.56-2.58l0-5.7a2.6,2.6,0,0,1,2.59-2.56h0a2.58,2.58,0,0,1,2.56,2.59l0,5.69A2.58,2.58,0,0,1,140.31,231Z" fill="#ffc17c"/>
      <path d="M136.58,226.18l-.05,8.77,20.33.11v-2.39a3,3,0,0,0-2-2.82l-11.08-3.67Z" fill="#efecea"/>
      <rect x="136.13" y="234.29" width="21.23" height="1.5" rx="0.68" transform="translate(1.29 -0.8) rotate(0.31)" fill="#252539"/>
      <path d="M142.54,230.4a2.12,2.12,0,1,1-2.1-2.13A2.12,2.12,0,0,1,142.54,230.4Z" fill="#dadada"/>
      <path d="M146.77,230h0a.61.61,0,0,1-.38-.78l.74-2.21a.62.62,0,0,1,.78-.39h0a.62.62,0,0,1,.39.78l-.75,2.21A.61.61,0,0,1,146.77,230Z" fill="#dadada"/>
      <path d="M148.32,230.56h0a.62.62,0,0,1-.39-.78l.74-2.21a.62.62,0,0,1,.78-.39h0a.62.62,0,0,1,.39.78l-.74,2.21A.62.62,0,0,1,148.32,230.56Z" fill="#dadada"/>
      <path d="M149.86,231.08h0a.63.63,0,0,1-.39-.78l.75-2.21a.61.61,0,0,1,.78-.39h0a.61.61,0,0,1,.38.78l-.74,2.21A.63.63,0,0,1,149.86,231.08Z" fill="#dadada"/>
    </g>
    <g>
      <path d="M122.32,233.62h0a2.58,2.58,0,0,1-2.55-2.6l.06-5.69a2.59,2.59,0,0,1,2.6-2.55h0a2.59,2.59,0,0,1,2.55,2.6l-.06,5.69A2.57,2.57,0,0,1,122.32,233.62Z" fill="#ffc17c"/>
      <path d="M118.61,228.74l-.09,8.77,20.33.2,0-2.38a2.94,2.94,0,0,0-2-2.83l-11.06-3.73Z" fill="#fff"/>
      <rect x="118.12" y="236.9" width="21.23" height="1.5" rx="0.68" transform="translate(2.4 -1.29) rotate(0.58)" fill="#375888"/>
      <path d="M124.55,233a2.11,2.11,0,1,1-2.09-2.13A2.12,2.12,0,0,1,124.55,233Z" fill="#dadada"/>
      <path d="M128.79,232.65h0a.62.62,0,0,1-.39-.78l.76-2.21a.62.62,0,0,1,.78-.39h0a.63.63,0,0,1,.38.79l-.75,2.2A.62.62,0,0,1,128.79,232.65Z" fill="#dadada"/>
      <path d="M130.33,233.17h0a.62.62,0,0,1-.39-.78l.76-2.21a.61.61,0,0,1,.78-.38h0a.61.61,0,0,1,.38.78l-.75,2.21A.61.61,0,0,1,130.33,233.17Z" fill="#dadada"/>
      <path d="M131.87,233.7h0a.61.61,0,0,1-.38-.78l.75-2.21a.61.61,0,0,1,.78-.38h0a.61.61,0,0,1,.38.78l-.75,2.2A.61.61,0,0,1,131.87,233.7Z" fill="#dadada"/>
    </g>
    <path d="M88.61,175.93h6.25A13.14,13.14,0,0,1,108,189.07v0a0,0,0,0,1,0,0H75.46a0,0,0,0,1,0,0v0A13.14,13.14,0,0,1,88.61,175.93Z" transform="translate(200.71 355.25) rotate(174.44)" fill="#410020"/>
    <path d="M92.9,178.79s-.71,12,13,11.76,20,2.94,20,2.94,3.2.06,4,8.07c0,0,4.2,23.83,4.77,24s10.61-.33,10.61-.33l-6.2-33.55s.3-8.48-10.3-9.33l-21.15-4.95Z" fill="#252539"/>
    <path d="M106.47,139.13l.91,39.1L74.85,179l-.91-39.09a8.77,8.77,0,0,1,8.56-9l15-.35A8.77,8.77,0,0,1,106.47,139.13Z" fill="#fff"/>
    <path d="M75.28,180.5s-.71,12,13,11.77,20,2.93,20,2.93,3.2.07,4,8.07c0,0,4.19,23.83,4.77,24s10.61,0,10.61,0l-6.2-33.88s.3-8.49-10.3-9.33l-21.16-5Z" fill="#31436c"/>
    <path d="M76.89,172.22h0a4.88,4.88,0,0,1-4.56-5.15L74,138.88a4.88,4.88,0,0,1,5.15-4.56h0a4.88,4.88,0,0,1,4.56,5.15l-.43,7.15-1.28,21A4.87,4.87,0,0,1,76.89,172.22Z" fill="#fff"/>
    <path d="M89.06,129.1h3.61a5.06,5.06,0,0,1,5.06,5.06v0a0,0,0,0,1,0,0H89.06a0,0,0,0,1,0,0V129.1A0,0,0,0,1,89.06,129.1Z" transform="translate(59.08 -26.08) rotate(23.08)" fill="#ededed"/>
    <path d="M90.22,135.56h0A3.79,3.79,0,0,1,87.4,131l1.31-5.63a3.8,3.8,0,0,1,4.54-2.82h0a3.78,3.78,0,0,1,2.81,4.54l-1.31,5.62A3.79,3.79,0,0,1,90.22,135.56Z" fill="#f2b3a2"/>
    <rect x="81.57" y="98.37" width="24.31" height="30.3" rx="12.16" transform="translate(-2.62 2.21) rotate(-1.33)" fill="#f3c19c"/>
    <g opacity="0.5">
      <path d="M87.37,99.78a11.31,11.31,0,0,0-3.92,8.81l.18,7.72a11.32,11.32,0,0,0,11.54,11l1.74,0A11.25,11.25,0,0,0,102,125.9,11.2,11.2,0,0,1,95,128.64l-1.74,0a11.32,11.32,0,0,1-11.55-11l-.18-7.72A11.32,11.32,0,0,1,87.37,99.78Z" fill="#e5b28f"/>
    </g>
    <path d="M97.06,122.26a3.77,3.77,0,0,0,3.68-3.85l-7.52.17A3.76,3.76,0,0,0,97.06,122.26Z" fill="#fff"/>
    <path d="M85.37,130.35H89A5.06,5.06,0,0,1,94,135.41v0a0,0,0,0,1,0,0H85.37a0,0,0,0,1,0,0v-5.06A0,0,0,0,1,85.37,130.35Z" transform="translate(59.27 -24.53) rotate(23.08)" fill="#fff"/>
    <path d="M79.76,101.15h0a4.14,4.14,0,0,1,4-4.21l18.3-.42a4.12,4.12,0,0,1,4.2,4h0a4.12,4.12,0,0,1-4,4.2l-18.3.43A4.13,4.13,0,0,1,79.76,101.15Z" fill="#2e2c47"/>
    <rect x="81.13" y="99.09" width="5.54" height="19.73" rx="2.77" transform="translate(-2.55 2.01) rotate(-1.35)" fill="#2e2c47"/>
    <path d="M94.93,111.26a1.32,1.32,0,1,1-1.32-1.32A1.32,1.32,0,0,1,94.93,111.26Z" fill="#5b0200"/>
    <path d="M101.92,111.26a1.32,1.32,0,1,1-1.32-1.32A1.32,1.32,0,0,1,101.92,111.26Z" fill="#5b0200"/>
    <path d="M97.45,117.34h0a1.28,1.28,0,0,1-1.28-1.28V113.7a1.28,1.28,0,0,1,1.28-1.28h0a1.29,1.29,0,0,1,1.28,1.28v2.36A1.28,1.28,0,0,1,97.45,117.34Z" fill="#f2b8ad"/>
    <path d="M100.65,94.35a9.43,9.43,0,0,0-5-1.46h-2a9.53,9.53,0,0,0-9.52,9.52v10.22h1V102.41a8.57,8.57,0,0,1,8.56-8.56h2a8.5,8.5,0,0,1,5,1.66Z" fill="#7f213c"/>
    <circle cx="101.76" cy="98.76" r="5.99" transform="translate(-31.24 49.58) rotate(-23.85)" fill="#2e2c47"/>
    <path d="M99.07,93.42l-.06,0a6,6,0,0,1,3.67,11.22,5.84,5.84,0,0,0,1.86-.59,6,6,0,1,0-5.47-10.66Z" fill="#212038"/>
    <g>
      <circle cx="84.52" cy="112.58" r="4.68" transform="translate(-44.52 168.86) rotate(-76.67)" fill="#962d46"/>
      <g opacity="0.15">
        <path d="M81.16,112.58a4.68,4.68,0,0,1,4-4.63,4.89,4.89,0,0,0-.66,0,4.68,4.68,0,1,0,0,9.36,4.89,4.89,0,0,0,.66-.05A4.68,4.68,0,0,1,81.16,112.58Z" fill="#1d1d1b"/>
      </g>
      <path d="M87.21,112.68A2.71,2.71,0,1,1,84.5,110,2.7,2.7,0,0,1,87.21,112.68Z" fill="#aa4b67"/>
    </g>
    <path d="M91.06,120.5h0a.56.56,0,0,1-.78-.13l-3.42-4.77a.56.56,0,0,1,.13-.78h0a.56.56,0,0,1,.78.13l3.42,4.77A.56.56,0,0,1,91.06,120.5Z" fill="#962d46"/>
    <path d="M95.27,120h0a.57.57,0,0,1-.56.56h-4a.56.56,0,0,1-.56-.56h0a.56.56,0,0,1,.56-.56h4A.57.57,0,0,1,95.27,120Z" fill="#962d46"/>
    <path d="M94.89,121H94a1,1,0,0,1-1-1h0a1,1,0,0,1,1-1h.87a1,1,0,0,1,1,1h0A1,1,0,0,1,94.89,121Z" fill="#aa4b67"/>
    <path d="M94.89,119H94a1,1,0,0,0-.46.12h.85a1,1,0,0,1,1,1,1,1,0,0,1-.53.87h0a1,1,0,1,0,0-2Z" fill="#933a58"/>
    <polygon points="81.34 162.91 90.53 164.36 82.9 147.15 81.34 162.91" fill="#eae8e9"/>
    <g>
      <path d="M106.84,175.15l-11.74-1.6a3,3,0,0,1-2.6-3.43h0a3,3,0,0,1,3.42-2.6l11.74,1.61a3,3,0,0,1,2.6,3.42h0A3,3,0,0,1,106.84,175.15Z" fill="#f3c19c"/>
      <circle cx="109.68" cy="172.2" r="4.05" transform="translate(-58.29 56.14) rotate(-22.86)" fill="#f3c19c"/>
      <path d="M116.38,169.47l-4,1.45a1,1,0,0,1-1.25-.47h0a.94.94,0,0,1,.66-1.15l4-1.45a1,1,0,0,1,1.25.47h0A1,1,0,0,1,116.38,169.47Z" fill="#f3c19c"/>
      <path d="M112.45,167.6,110.37,170a1.11,1.11,0,0,1-1.56.11h0a1.11,1.11,0,0,1-.1-1.56l2.07-2.37a1.11,1.11,0,0,1,1.56-.11h0A1.11,1.11,0,0,1,112.45,167.6Z" fill="#f3c19c"/>
      <path d="M117.7,172.3h-4.28a1,1,0,0,1-1-.86h0a1,1,0,0,1,1-.86h4.28a1,1,0,0,1,1,.86h0A1,1,0,0,1,117.7,172.3Z" fill="#f3c19c"/>
      <path d="M116.25,175l-4.17-.88a.89.89,0,0,1-.78-1h0a1,1,0,0,1,1.2-.63l4.17.88a.91.91,0,0,1,.78,1h0A1,1,0,0,1,116.25,175Z" fill="#f3c19c"/>
      <path d="M114.64,177.07l-4.07-1.27a.91.91,0,0,1-.67-1.12h0a1,1,0,0,1,1.25-.51l4.08,1.28a.9.9,0,0,1,.67,1.11h0A1,1,0,0,1,114.64,177.07Z" fill="#f3c19c"/>
    </g>
    <path d="M74.05,168.43h0c.3-2.67,2.42-4.64,4.7-4.38l23.12,2.64-1.08,9.5c0,.09-.08.16-.15.15l-23-2.61C75.36,173.47,73.75,171.08,74.05,168.43Z" fill="#eae8e9"/>
    <path d="M72.41,166.82h0a4.89,4.89,0,0,1,5.4-4.29l27,3.08-1.08,9.5a.16.16,0,0,1-.18.14l-26.87-3A4.89,4.89,0,0,1,72.41,166.82Z" fill="#fff"/>
    <g>
      <g>
        <circle cx="212.99" cy="120.94" r="32.93" transform="translate(-29.58 87.03) rotate(-21.63)" fill="#3071b8"/>
        <g clip-path="url(#clip-path)">
          <g>
            <g>
              <path d="M189.25,127.86a3.11,3.11,0,1,0,4.22,1.24A3.11,3.11,0,0,0,189.25,127.86Z" fill="#f3c19c"/>
              <path d="M190.1,125.07l.51,3.24a.74.74,0,0,0,.78.67h0a.73.73,0,0,0,.53-.87l-.52-3.24a.72.72,0,0,0-.77-.67h0A.73.73,0,0,0,190.1,125.07Z" fill="#f3c19c"/>
              <path d="M192.81,127,192,129.3a.85.85,0,0,0,.5,1.09h0a.85.85,0,0,0,1.09-.5l.83-2.27a.84.84,0,0,0-.5-1.09h0A.85.85,0,0,0,192.81,127Z" fill="#f3c19c"/>
              <path d="M187.71,125.23l1.57,2.88a.73.73,0,0,0,.95.37h0a.73.73,0,0,0,.21-1l-1.57-2.88a.73.73,0,0,0-1-.37h0A.73.73,0,0,0,187.71,125.23Z" fill="#f3c19c"/>
              <path d="M186.42,127.2l2.13,2.49a.7.7,0,0,0,1,.14h0a.76.76,0,0,0,0-1l-2.13-2.49a.7.7,0,0,0-1-.14h0A.76.76,0,0,0,186.42,127.2Z" fill="#f3c19c"/>
              <path d="M185.63,129.05l2.36,2.27a.69.69,0,0,0,1,0h0a.76.76,0,0,0-.11-1l-2.37-2.28a.69.69,0,0,0-1,0h0A.77.77,0,0,0,185.63,129.05Z" fill="#f3c19c"/>
            </g>
            <g>
              <path d="M234.37,125.36h0c-.5-1.37-1.73-2.19-2.73-1.82l-14.09,5.18c-1,.37-1.4,1.79-.89,3.16h0c.5,1.37,1.73,2.19,2.73,1.83l14.09-5.19C234.47,128.16,234.88,126.73,234.37,125.36Z" fill="#f3c19c"/>
              <path d="M230.19,128l-.85-2.3a1.19,1.19,0,0,0-1.53-.71l-9.64,3.54a2.6,2.6,0,0,0-1.53,3.33h0a2.72,2.72,0,0,0,3.49,1.61l9.07-3.33A1.68,1.68,0,0,0,230.19,128Z" fill="#dbdbdb"/>
              <rect x="225.8" y="126.16" width="6.76" height="2.28" rx="1.14" transform="translate(188.88 386.33) rotate(-110.21)" fill="#ccc"/>
            </g>
            <g>
              <path d="M200.06,148.55h0a2.48,2.48,0,0,1-1.94-2.89l4.79-16.78a2.48,2.48,0,0,1,3.17-1.43h0a2.48,2.48,0,0,1,1.94,2.89l-4.79,16.78A2.48,2.48,0,0,1,200.06,148.55Z" fill="#f3c19c"/>
              <path d="M203.18,141.23l-2.36-.67a1.19,1.19,0,0,1-.82-1.48l2.82-9.87a2.6,2.6,0,0,1,3.2-1.78h0a2.74,2.74,0,0,1,1.87,3.37l-2.65,9.29A1.68,1.68,0,0,1,203.18,141.23Z" fill="#dbdbdb"/>
              <rect x="199.06" y="139.13" width="6.76" height="2.28" rx="1.14" transform="translate(358.6 330.72) rotate(-164.07)" fill="#ccc"/>
            </g>
            <rect x="203.94" y="125.94" width="18.49" height="30.7" rx="9.25" fill="#e6e7e8"/>
            <rect x="202.04" y="102.41" width="22.04" height="23.34" rx="11.02" fill="#ffb600"/>
            <ellipse cx="213.06" cy="110.41" rx="11.02" ry="13.32" fill="#ffce00"/>
            <path d="M213.18,130.46h0a3.51,3.51,0,0,1-3.5-3.49v-5.15a3.51,3.51,0,0,1,3.5-3.49h0a3.5,3.5,0,0,1,3.5,3.49V127A3.5,3.5,0,0,1,213.18,130.46Z" fill="#f2b3a2"/>
            <rect x="209.68" y="113.26" width="7" height="12.14" rx="3.5" fill="#e5a393"/>
            <g>
              <path d="M206.43,109.77A1.74,1.74,0,1,1,204.7,108,1.74,1.74,0,0,1,206.43,109.77Z" fill="#f3c19c"/>
              <path d="M205.56,109.77a.87.87,0,0,1-1.73,0,.87.87,0,1,1,1.73,0Z" fill="#f4ac94"/>
            </g>
            <g>
              <path d="M223.4,109.77a1.73,1.73,0,1,1-1.73-1.73A1.74,1.74,0,0,1,223.4,109.77Z" fill="#f3c19c"/>
              <path d="M222.53,109.77a.87.87,0,0,1-1.73,0,.87.87,0,1,1,1.73,0Z" fill="#f4ac94"/>
            </g>
            <path d="M213.18,123.72h0a8.51,8.51,0,0,1-8.48-8.49v-7.89a8.51,8.51,0,0,1,8.48-8.49h0a8.51,8.51,0,0,1,8.49,8.49v7.89A8.51,8.51,0,0,1,213.18,123.72Z" fill="#f3c19c"/>
            <g opacity="0.5">
              <path d="M213.18,122.2h0a8.5,8.5,0,0,1-8.48-8.48v1.51a8.51,8.51,0,0,0,8.48,8.49h0a8.51,8.51,0,0,0,8.49-8.49v-1.51A8.51,8.51,0,0,1,213.18,122.2Z" fill="#e5b28f"/>
            </g>
            <path d="M215.34,116v.77a2.11,2.11,0,0,1,0,.26,2.26,2.26,0,0,1-4.51-.26V116Z" fill="#fff"/>
            <g opacity="0.5">
              <rect x="204.7" y="103.54" width="16.97" height="4.91" fill="#e5b28f"/>
            </g>
            <path d="M213.06,97.1h0a9.61,9.61,0,0,0-9.58,9.58v1h9.83l2.83-3.84v3.84h6.51v-1A9.61,9.61,0,0,0,213.06,97.1Z" fill="#ffda00"/>
            <g>
              <path d="M212.66,113.91a.45.45,0,1,1-.45-.44A.45.45,0,0,1,212.66,113.91Z" fill="#f2b3a2"/>
              <path d="M214.6,113.91a.45.45,0,1,1-.45-.44A.45.45,0,0,1,214.6,113.91Z" fill="#f2b3a2"/>
            </g>
            <path d="M202.12,148.15h0a2.71,2.71,0,0,1-3.73-.79l-9.07-13.94a2.71,2.71,0,0,1,.79-3.73h0a2.71,2.71,0,0,1,3.74.79l9.06,13.93A2.71,2.71,0,0,1,202.12,148.15Z" fill="#f3c19c"/>
            <path d="M210.83,110.41s0-.09,0-.13a1.33,1.33,0,0,0-2.66,0,.69.69,0,0,0,0,.13Z" fill="#0c1e2d"/>
            <path d="M218.17,110.41s0-.09,0-.13a1.33,1.33,0,0,0-2.66,0,.69.69,0,0,0,0,.13Z" fill="#0c1e2d"/>
            <path d="M218.12,112.23h-2a.47.47,0,0,1-.46-.46h0a.46.46,0,0,1,.46-.46h2a.46.46,0,0,1,.46.46h0A.47.47,0,0,1,218.12,112.23Z" fill="#f4ac94"/>
            <path d="M210.53,112.23h-2a.47.47,0,0,1-.46-.46h0a.46.46,0,0,1,.46-.46h2a.45.45,0,0,1,.46.46h0A.46.46,0,0,1,210.53,112.23Z" fill="#f4ac94"/>
            <g>
              <path d="M221.69,116.74h0a.87.87,0,0,1-.69-1l1.22-6.63a.88.88,0,0,1,1-.7h0a.87.87,0,0,1,.69,1L222.7,116A.88.88,0,0,1,221.69,116.74Z" fill="#b2b2b2"/>
              <path d="M223.23,108.4a.9.9,0,0,0-.88.37.86.86,0,0,1,1.05,1l-1.22,6.63a1,1,0,0,1-.13.33.87.87,0,0,0,.65-.69l1.22-6.63A.87.87,0,0,0,223.23,108.4Z" fill="#8c8c8c"/>
            </g>
            <rect x="225.73" y="110.91" width="5.4" height="19.1" rx="2.7" transform="translate(-27.73 153.2) rotate(-35.09)" fill="#f3c19c"/>
            <path d="M226.09,113.7a2.95,2.95,0,1,1-2.94-2.94A2.95,2.95,0,0,1,226.09,113.7Z" fill="#f3c19c"/>
          </g>
        </g>
      </g>
      <path d="M213,154.74A33.73,33.73,0,1,1,246.68,121,33.77,33.77,0,0,1,213,154.74Zm0-65.86A32.14,32.14,0,1,0,245.09,121,32.17,32.17,0,0,0,213,88.88Z" fill="#fff"/>
    </g>
    <g>
      <g>
        <circle cx="43.04" cy="53.59" r="32.44" transform="translate(-16.92 19.99) rotate(-21.96)" fill="#ffda00"/>
        <g clip-path="url(#clip-path-2)">
          <g>
            <g>
              <path d="M17.44,57A3.36,3.36,0,1,0,22,58.32,3.36,3.36,0,0,0,17.44,57Z" fill="#f3c19c"/>
              <path d="M18.35,54l.56,3.51a.78.78,0,0,0,.83.71h0a.79.79,0,0,0,.58-.94l-.56-3.5a.79.79,0,0,0-.83-.72h0A.8.8,0,0,0,18.35,54Z" fill="#f3c19c"/>
              <path d="M21.28,56.08l-.9,2.45a.92.92,0,0,0,.55,1.18h0a.91.91,0,0,0,1.17-.55l.9-2.45a.91.91,0,0,0-.54-1.17h0A.92.92,0,0,0,21.28,56.08Z" fill="#f3c19c"/>
              <path d="M15.77,54.13l1.7,3.12a.79.79,0,0,0,1,.39h0a.79.79,0,0,0,.22-1.08L17,53.45a.8.8,0,0,0-1-.4h0A.79.79,0,0,0,15.77,54.13Z" fill="#f3c19c"/>
              <path d="M14.38,56.26,16.68,59a.75.75,0,0,0,1.07.15h0a.82.82,0,0,0,0-1.12l-2.3-2.69a.76.76,0,0,0-1.07-.15h0A.82.82,0,0,0,14.38,56.26Z" fill="#f3c19c"/>
              <path d="M13.52,58.26l2.55,2.45a.74.74,0,0,0,1.08,0h0A.82.82,0,0,0,17,59.64l-2.55-2.46a.76.76,0,0,0-1.08,0h0A.83.83,0,0,0,13.52,58.26Z" fill="#f3c19c"/>
            </g>
            <g>
              <path d="M66.17,54.28h0c-.55-1.48-1.87-2.37-3-2L48,57.91c-1.07.39-1.51,1.93-1,3.41h0c.54,1.48,1.87,2.37,3,2l15.21-5.6C66.28,57.29,66.71,55.76,66.17,54.28Z" fill="#f3c19c"/>
              <path d="M61.65,57.09l-.92-2.5a1.28,1.28,0,0,0-1.65-.76L48.67,57.66A2.81,2.81,0,0,0,47,61.25h0A3,3,0,0,0,50.79,63l9.8-3.61A1.8,1.8,0,0,0,61.65,57.09Z" fill="#2869a5"/>
              <rect x="56.91" y="55.13" width="7.3" height="2.46" rx="1.23" transform="translate(28.58 132.66) rotate(-110.21)" fill="#145382"/>
            </g>
            <g>
              <path d="M29.23,79.35h0a2.59,2.59,0,0,1-2-3.07l5.15-18.05a2.6,2.6,0,0,1,3.3-1.57h0a2.6,2.6,0,0,1,2,3.08L32.53,77.79A2.6,2.6,0,0,1,29.23,79.35Z" fill="#f3c19c"/>
              <path d="M32.48,71.42l-2.55-.73A1.29,1.29,0,0,1,29,69.1l3.05-10.66a2.81,2.81,0,0,1,3.46-1.93h0a3,3,0,0,1,2,3.64l-2.87,10A1.8,1.8,0,0,1,32.48,71.42Z" fill="#2869a5"/>
              <rect x="28.03" y="69.15" width="7.3" height="2.46" rx="1.23" transform="translate(42.82 146.75) rotate(-164.07)" fill="#145382"/>
            </g>
            <rect x="33.3" y="54.9" width="19.97" height="33.15" rx="9.99" fill="#3071b8"/>
            <path d="M31.34,78.89h0a2.93,2.93,0,0,1-4-.86L17.51,63a2.93,2.93,0,0,1,.86-4h0a2.92,2.92,0,0,1,4,.85l9.79,15A2.93,2.93,0,0,1,31.34,78.89Z" fill="#f3c19c"/>
            <g>
              <path d="M50.63,31.53a7.4,7.4,0,1,1-7.4-7.4A7.4,7.4,0,0,1,50.63,31.53Z" fill="#df2a27"/>
              <path d="M45.8,33.87a2.44,2.44,0,1,1-2.44-2.44A2.43,2.43,0,0,1,45.8,33.87Z" fill="#fec93e"/>
              <rect x="40.48" y="46.91" width="5.89" height="11.22" rx="2.94" fill="#f6c09c"/>
              <g opacity="0.1">
                <path d="M46.36,52.06v.79a7.44,7.44,0,0,1-2.59.47H42.46a7.77,7.77,0,0,1-2-.27v-.8a7.35,7.35,0,0,0,2,.27h1.31A7.43,7.43,0,0,0,46.36,52.06Z" fill="#231f20"/>
              </g>
              <circle cx="42.84" cy="42.8" r="9.67" fill="#df2a27"/>
              <g>
                <path d="M36,43.09a1.85,1.85,0,1,1-1.84-1.84A1.84,1.84,0,0,1,36,43.09Z" fill="#f6c09c"/>
                <path d="M35.24,43.09A1.13,1.13,0,1,1,34.12,42,1.12,1.12,0,0,1,35.24,43.09Z" fill="#ff927e"/>
              </g>
              <g>
                <path d="M53.42,43.09a1.85,1.85,0,1,1-1.85-1.84A1.85,1.85,0,0,1,53.42,43.09Z" fill="#f6c09c"/>
                <path d="M52.7,43.09A1.13,1.13,0,1,1,51.57,42,1.12,1.12,0,0,1,52.7,43.09Z" fill="#ff927e"/>
              </g>
              <path d="M42.84,52.62h0A8.91,8.91,0,0,1,34,43.74h0a8.9,8.9,0,0,1,8.88-8.88h0a8.91,8.91,0,0,1,8.89,8.88h0A8.91,8.91,0,0,1,42.84,52.62Z" fill="#f6c09c"/>
              <g opacity="0.1">
                <path d="M35.69,43.74h0a8.91,8.91,0,0,1,8-8.84,8.44,8.44,0,0,0-.87,0A8.9,8.9,0,0,0,34,43.74h0a8.91,8.91,0,0,0,8.88,8.88c.29,0,.58,0,.87,0A8.91,8.91,0,0,1,35.69,43.74Z" fill="#1d1d1b"/>
              </g>
              <path d="M42.84,49.36a2.91,2.91,0,0,0,2.92-2.91H39.93A2.91,2.91,0,0,0,42.84,49.36Z" fill="#f6f6f6"/>
              <path d="M40.22,44h0a.58.58,0,0,1-.57-.58V42.2a.58.58,0,0,1,.57-.58h0a.58.58,0,0,1,.58.58v1.19A.58.58,0,0,1,40.22,44Z" fill="#372117"/>
              <path d="M45.54,44h0a.58.58,0,0,1-.57-.58V42.2a.58.58,0,0,1,.57-.58h0a.58.58,0,0,1,.58.58v1.19A.58.58,0,0,1,45.54,44Z" fill="#372117"/>
            </g>
            <g>
              <path d="M51.77,48.57h0a.93.93,0,0,1-.8-1l1-7.22a.93.93,0,0,1,1-.8h0a1,1,0,0,1,.8,1l-1,7.22A.93.93,0,0,1,51.77,48.57Z" fill="#b2b2b2"/>
              <path d="M53,39.5a1,1,0,0,0-.93.44,1,1,0,0,1,.38,0,.93.93,0,0,1,.8,1l-1,7.21a.92.92,0,0,1-.13.36.92.92,0,0,0,.67-.77l1-7.22A1,1,0,0,0,53,39.5Z" fill="#8c8c8c"/>
            </g>
            <path d="M65.82,57.17h0a2.94,2.94,0,0,1-4.13-.11l-8.21-8.64a2.92,2.92,0,0,1,.11-4.12h0a2.92,2.92,0,0,1,4.12.1L65.92,53A2.94,2.94,0,0,1,65.82,57.17Z" fill="#f3c19c"/>
            <path d="M56.75,44.52a3.18,3.18,0,1,1-3.33-3A3.19,3.19,0,0,1,56.75,44.52Z" fill="#f3c19c"/>
          </g>
        </g>
        <path d="M43,45.63h0a.85.85,0,0,1-.85-.85v-.47a.85.85,0,0,1,.85-.86h0a.86.86,0,0,1,.86.86v.47A.86.86,0,0,1,43,45.63Z" fill="#ff927e"/>
        <path d="M38.55,35s4.65,6.93,12.63,4.46C51.18,39.46,48.86,32.5,38.55,35Z" fill="#df2a27"/>
        <path d="M34.15,38.88s7.59,3.48,13.1-2.79C47.25,36.09,41.65,31.36,34.15,38.88Z" fill="#df2a27"/>
      </g>
      <path d="M43,87.32A33.73,33.73,0,1,1,76.77,53.59,33.76,33.76,0,0,1,43,87.32Zm0-65.86A32.14,32.14,0,1,0,75.17,53.59,32.17,32.17,0,0,0,43,21.46Z" fill="#fff"/>
    </g>
    <g>
      <circle cx="145.96" cy="49.49" r="32.93" transform="translate(63.17 179.49) rotate(-76.24)" fill="#df2a27"/>
      <g clip-path="url(#clip-path-3)">
        <g>
          <path d="M182.8,69.46a3.47,3.47,0,1,1-4.4-2.16A3.47,3.47,0,0,1,182.8,69.46Z" fill="#f3c19c"/>
          <path d="M184.2,66.54l-2.87,2.27a.8.8,0,0,1-1.13,0h0a.81.81,0,0,1,.22-1.11l2.87-2.27a.8.8,0,0,1,1.13,0h0A.79.79,0,0,1,184.2,66.54Z" fill="#f3c19c"/>
          <path d="M180.5,66.1l-1,2.49a1,1,0,0,1-1.24.51h0a.94.94,0,0,1-.51-1.23l1-2.5a1,1,0,0,1,1.24-.51h0A1,1,0,0,1,180.5,66.1Z" fill="#f3c19c"/>
          <path d="M186,68.47l-3.46,1.18a.82.82,0,0,1-1.06-.42h0a.8.8,0,0,1,.58-1l3.47-1.18a.81.81,0,0,1,1.06.42h0A.81.81,0,0,1,186,68.47Z" fill="#f3c19c"/>
          <path d="M185.61,71.07l-3.62.42a.77.77,0,0,1-.92-.63h0a.85.85,0,0,1,.8-.84l3.63-.42a.77.77,0,0,1,.91.63h0A.86.86,0,0,1,185.61,71.07Z" fill="#f3c19c"/>
          <path d="M184.87,73.18l-3.65.07a.77.77,0,0,1-.85-.72h0a.85.85,0,0,1,.88-.75l3.65-.08a.78.78,0,0,1,.85.72h0A.87.87,0,0,1,184.87,73.18Z" fill="#f3c19c"/>
        </g>
        <g>
          <path d="M122.34,52.66h0c.57-1.53,1.93-2.45,3-2l15.7,5.78c1.11.41,1.56,2,1,3.52h0c-.56,1.53-1.93,2.45-3,2l-15.7-5.78C122.23,55.77,121.78,54.18,122.34,52.66Z" fill="#f3c19c"/>
          <path d="M127,55.55,128,53a1.34,1.34,0,0,1,1.71-.79l10.74,4a2.9,2.9,0,0,1,1.71,3.71h0a3,3,0,0,1-3.9,1.8L128.1,57.93A1.85,1.85,0,0,1,127,55.55Z" fill="#8faf2b"/>
          <rect x="124.37" y="53.54" width="7.53" height="2.54" rx="1.27" transform="translate(32.44 156.12) rotate(-69.79)" fill="#7e961d"/>
        </g>
        <g>
          <path d="M160.58,78.5h0a2.76,2.76,0,0,0,2.18-3.18L157.52,57A2.75,2.75,0,0,0,154,55.42h0a2.76,2.76,0,0,0-2.18,3.17L157.06,77A2.76,2.76,0,0,0,160.58,78.5Z" fill="#f3c19c"/>
          <path d="M157.1,70.34l2.64-.75a1.33,1.33,0,0,0,.91-1.64l-3.14-11a2.9,2.9,0,0,0-3.57-2h0a3,3,0,0,0-2.08,3.75l2.95,10.36A1.86,1.86,0,0,0,157.1,70.34Z" fill="#8faf2b"/>
          <rect x="154.17" y="68" width="7.53" height="2.54" rx="1.27" transform="translate(-12.95 46.01) rotate(-15.93)" fill="#7e961d"/>
        </g>
        <rect x="135.65" y="51.32" width="20.61" height="34.21" rx="10.3" transform="translate(291.92 136.85) rotate(180)" fill="#92bb2d"/>
        <path d="M146,57.1h0a3.91,3.91,0,0,0,3.9-3.9V47.47a3.92,3.92,0,0,0-3.9-3.9h0a3.91,3.91,0,0,0-3.9,3.9V53.2A3.91,3.91,0,0,0,146,57.1Z" fill="#f2b3a2"/>
        <path d="M146,52.69h0a3.91,3.91,0,0,0,3.9-3.9V43.06a3.92,3.92,0,0,0-3.9-3.9h0a3.91,3.91,0,0,0-3.9,3.9v5.73A3.91,3.91,0,0,0,146,52.69Z" fill="#e5a393"/>
        <path d="M156.92,76.38h0a3,3,0,0,0,3.66,2.17l18-4.58a3,3,0,0,0,2.17-3.66h0a3,3,0,0,0-3.66-2.17l-18,4.58A3,3,0,0,0,156.92,76.38Z" fill="#f3c19c"/>
        <rect x="125.95" y="36.55" width="6.02" height="21.28" rx="3.01" transform="translate(207.36 159.94) rotate(-144.91)" fill="#f3c19c"/>
        <g>
          <circle cx="140.17" cy="35.06" r="4.73" transform="translate(-2.8 55.99) rotate(-22.37)" fill="#2e2c47"/>
          <circle cx="151.84" cy="35.86" r="4.73" fill="#2e2c47"/>
          <circle cx="154.47" cy="32.55" r="2.61" fill="#2e2c47"/>
          <path d="M140.06,32.55a2.62,2.62,0,1,1-2.62-2.61A2.62,2.62,0,0,1,140.06,32.55Z" fill="#2e2c47"/>
          <path d="M140.1,39.36a1.94,1.94,0,1,1-1.94-1.93A1.94,1.94,0,0,1,140.1,39.36Z" fill="#2e2c47"/>
          <path d="M155.72,39.36a1.94,1.94,0,1,1-1.94-1.93A1.94,1.94,0,0,1,155.72,39.36Z" fill="#2e2c47"/>
          <circle cx="139.83" cy="29.72" r="4.73" fill="#2e2c47"/>
          <path d="M146.59,31a4.25,4.25,0,1,1,.81-6A4.26,4.26,0,0,1,146.59,31Z" fill="#2e2c47"/>
          <path d="M154,32.47a4.25,4.25,0,1,1,.81-6A4.25,4.25,0,0,1,154,32.47Z" fill="#2e2c47"/>
          <path d="M150.73,30.13a4.25,4.25,0,1,1,.81-6A4.25,4.25,0,0,1,150.73,30.13Z" fill="#2e2c47"/>
          <g>
            <path d="M156.57,35.86a1.79,1.79,0,1,1-1.78-1.79A1.79,1.79,0,0,1,156.57,35.86Z" fill="#f3c19c"/>
            <circle cx="154.79" cy="35.86" r="0.89" fill="#f4ac94"/>
          </g>
          <g>
            <path d="M139.05,35.86a1.79,1.79,0,1,1-1.78-1.79A1.79,1.79,0,0,1,139.05,35.86Z" fill="#f3c19c"/>
            <circle cx="137.27" cy="35.86" r="0.89" fill="#f4ac94"/>
          </g>
          <path d="M146,50.26h0a8.78,8.78,0,0,1-8.76-8.76V33.35A8.78,8.78,0,0,1,146,24.59h0a8.78,8.78,0,0,1,8.76,8.76V41.5A8.78,8.78,0,0,1,146,50.26Z" fill="#f3c19c"/>
          <circle cx="142.65" cy="35.49" r="0.98" fill="#0c1e2d"/>
          <path d="M150.1,36.18a1,1,0,0,1-1.38-1.38,1,1,0,0,1,1.38,0A1,1,0,0,1,150.1,36.18Z" fill="#0c1e2d"/>
          <path d="M149,42.37v1a1.94,1.94,0,0,1,0,.34,3,3,0,0,1-3,2.65,2.82,2.82,0,0,1-.92-.15A3,3,0,0,1,143,43.4v-1Z" fill="#fff"/>
          <path d="M142,31.62a3.19,3.19,0,1,1,.61-4.46A3.19,3.19,0,0,1,142,31.62Z" fill="#2e2c47"/>
          <path d="M146.08,29.11a3.42,3.42,0,1,1,.65-4.79A3.41,3.41,0,0,1,146.08,29.11Z" fill="#2e2c47"/>
          <path d="M150.74,30.14a3.41,3.41,0,1,1,.65-4.78A3.42,3.42,0,0,1,150.74,30.14Z" fill="#2e2c47"/>
          <path d="M155.06,32.21a3.41,3.41,0,1,1,.66-4.78A3.41,3.41,0,0,1,155.06,32.21Z" fill="#2e2c47"/>
          <g opacity="0.15">
            <path d="M142.13,25.05,142,25a.33.33,0,0,1-.14-.44,2.14,2.14,0,0,1,1.57-1.1.32.32,0,0,1,.34.3.31.31,0,0,1-.3.34,1.47,1.47,0,0,0-1,.76A.32.32,0,0,1,142.13,25.05Z" fill="#fff"/>
          </g>
          <g opacity="0.15">
            <path d="M136.46,28.19h-.15a.33.33,0,0,1-.24-.39,2.08,2.08,0,0,1,1.24-1.45.31.31,0,0,1,.41.2.32.32,0,0,1-.2.41,1.49,1.49,0,0,0-.82,1A.33.33,0,0,1,136.46,28.19Z" fill="#fff"/>
          </g>
          <g opacity="0.15">
            <path d="M149.23,23.5a.38.38,0,0,1,0-.15.32.32,0,0,1,.4-.23,2.09,2.09,0,0,1,1.42,1.27.33.33,0,0,1-.21.41.33.33,0,0,1-.41-.22,1.47,1.47,0,0,0-1-.83A.32.32,0,0,1,149.23,23.5Z" fill="#fff"/>
          </g>
          <path d="M143.87,33.94h-2.45a.55.55,0,0,1-.55-.55h0a.55.55,0,0,1,.55-.55h2.45a.55.55,0,0,1,.55.55h0A.55.55,0,0,1,143.87,33.94Z" fill="#2e2c47"/>
          <path d="M150.64,33.94h-2.46a.55.55,0,0,1-.55-.55h0a.55.55,0,0,1,.55-.55h2.46a.55.55,0,0,1,.54.55h0A.55.55,0,0,1,150.64,33.94Z" fill="#2e2c47"/>
          <rect x="144.79" y="35.49" width="2.48" height="4.82" rx="1.24" fill="#f4ac94"/>
        </g>
        <g>
          <path d="M136.47,43h0a1,1,0,0,0,.78-1.12l-1.36-7.39a1,1,0,0,0-1.13-.77h0a1,1,0,0,0-.77,1.12l1.36,7.39A1,1,0,0,0,136.47,43Z" fill="#b2b2b2"/>
          <path d="M134.76,33.76a1,1,0,0,1,1,.41,1.07,1.07,0,0,0-.4,0,1,1,0,0,0-.77,1.13l1.36,7.39a1,1,0,0,0,.15.36,1,1,0,0,1-.73-.76L134,34.88A1,1,0,0,1,134.76,33.76Z" fill="#8c8c8c"/>
        </g>
        <path d="M131.57,39.66a3.29,3.29,0,1,0,3.28-3.28A3.28,3.28,0,0,0,131.57,39.66Z" fill="#f3c19c"/>
      </g>
      <path d="M146,83.22a33.73,33.73,0,1,1,33.72-33.73A33.77,33.77,0,0,1,146,83.22Zm0-65.86a32.13,32.13,0,1,0,32.13,32.13A32.16,32.16,0,0,0,146,17.36Z" fill="#fff"/>
    </g>
    <g>
      <rect x="56.25" y="87.78" width="1.06" height="3.19" transform="translate(-41.83 50.8) rotate(-36.21)" fill="#fff"/>
      <path d="M72,111.11l-3.69-5,.86-.63,3.69,5ZM64.67,101,61,96l.86-.63,3.69,5Z" fill="#fff"/>
      <rect x="76.57" y="115.53" width="1.06" height="3.19" transform="translate(-54.29 68.16) rotate(-36.21)" fill="#fff"/>
    </g>
    <path d="M112.54,117.59l-.84-.65,3.9-5,.84.65Zm7.8-10.09-.84-.65,3.91-5,.84.65Zm7.81-10.08-.84-.65,3.9-5,.84.65ZM136,87.33l-.84-.65.75-1,.84.65Z" fill="#fff"/>
    <path d="M176,127.94l-2.57-.08,0-1.06,2.57.07Zm-8.94-.28-6.37-.2,0-1.06,6.37.2Zm-12.75-.39-6.37-.2,0-1.06,6.37.19Zm-12.75-.4-6.37-.2,0-1.06,6.38.2Zm-12.75-.39-6.37-.2,0-1.06,6.38.19Zm-12.74-.4-6.38-.2,0-1.06,6.38.2Z" fill="#fff"/>
    <g>
      <rect x="56.5" y="181.65" width="131.42" height="57.65" fill="#884435"/>
      <rect x="53.73" y="178.13" width="136.95" height="4.68" rx="2.34" fill="#6a1503"/>
    </g>
    <g>
      <path d="M154.23,178.09H102.06A1.1,1.1,0,0,1,101,177h0a1.1,1.1,0,0,1,1.1-1.09h52.17a1.1,1.1,0,0,1,1.1,1.09h0A1.1,1.1,0,0,1,154.23,178.09Z" fill="#7c8a98"/>
      <path d="M128.41,178.13H102.06A1.1,1.1,0,0,1,101,177h0a1.11,1.11,0,0,1,1.1-1.1h26.35a1.1,1.1,0,0,1,1.09,1.1h0A1.09,1.09,0,0,1,128.41,178.13Z" fill="#697884"/>
      <path d="M153.57,175.52h-26a1.2,1.2,0,0,1-1.17-1.45l4.43-20.15A1.2,1.2,0,0,1,132,153h27.11a1.2,1.2,0,0,1,1.15,1.51l-5.56,20.15A1.21,1.21,0,0,1,153.57,175.52Z" fill="#c9dbeb"/>
      <path d="M154.16,175.51h-26a1.19,1.19,0,0,1-1.16-1.45l4.43-20.15a1.19,1.19,0,0,1,1.16-.94h27.11a1.19,1.19,0,0,1,1.15,1.51l-5.56,20.16A1.19,1.19,0,0,1,154.16,175.51Z" fill="#749abf"/>
      <path d="M160,153l-5.52,20a1.19,1.19,0,0,1-1.15.87h-26a1.06,1.06,0,0,1-.31,0l0,.21a1.19,1.19,0,0,0,1.17,1.45h26a1.19,1.19,0,0,0,1.15-.87l5.56-20.16A1.19,1.19,0,0,0,160,153Z" fill="#5e85a5"/>
      <path d="M146.88,165.31A2.56,2.56,0,1,1,145,162,2.68,2.68,0,0,1,146.88,165.31Z" fill="#c1d4e7"/>
      <g>
        <path d="M133.93,177.09h0a.47.47,0,0,1-.47-.46v-1.82a.47.47,0,0,1,.47-.47h0a.47.47,0,0,1,.46.47v1.82A.47.47,0,0,1,133.93,177.09Z" fill="#697884"/>
        <path d="M134.15,174.4a.3.3,0,0,1,0,.13v1.82a.46.46,0,0,1-.46.47.4.4,0,0,1-.22-.06.45.45,0,0,0,.44.33.47.47,0,0,0,.46-.46v-1.82A.45.45,0,0,0,134.15,174.4Z" fill="#55636d"/>
      </g>
      <g>
        <path d="M148.72,177.09h0a.47.47,0,0,1-.46-.46v-1.82a.47.47,0,0,1,.46-.47h0a.47.47,0,0,1,.47.47v1.82A.47.47,0,0,1,148.72,177.09Z" fill="#697884"/>
        <path d="M149,174.4a.59.59,0,0,1,0,.13v1.82a.47.47,0,0,1-.47.47.4.4,0,0,1-.22-.06.45.45,0,0,0,.44.33.47.47,0,0,0,.47-.46v-1.82A.47.47,0,0,0,149,174.4Z" fill="#55636d"/>
      </g>
    </g>
    <g>
      <path d="M174.11,170.4a7.55,7.55,0,0,1-.3-1.35c-.27-1.48-.79-2.9-1.06-4.38-.06-.39-.09-.87.17-1.08a.55.55,0,0,1,.3-.11,1.23,1.23,0,0,1,1,.73,4.64,4.64,0,0,1,.4,1.39,43.51,43.51,0,0,1,.56,5C175.25,171.8,174.38,171.13,174.11,170.4Z" fill="#b7cc3b"/>
      <path d="M176.27,170.16a8,8,0,0,1,.08-1.38c.16-1.5.05-3,.2-4.5,0-.39.15-.86.46-1a.42.42,0,0,1,.31,0,1.19,1.19,0,0,1,.76,1,4.63,4.63,0,0,1,0,1.44,42.81,42.81,0,0,1-.83,4.92C177,171.82,176.33,170.94,176.27,170.16Z" fill="#b7cc3b"/>
      <path d="M177.73,170.24a6.65,6.65,0,0,1,.56-1c.64-1.08,1.1-2.26,1.74-3.33.17-.29.42-.6.7-.59a.37.37,0,0,1,.24.1,1,1,0,0,1,.23,1,3.92,3.92,0,0,1-.51,1.1,36.53,36.53,0,0,1-2.37,3.42C177.68,171.74,177.5,170.85,177.73,170.24Z" fill="#b7cc3b"/>
      <path d="M175.21,170.82a6.42,6.42,0,0,1-.16-1.38c-.09-1.5-.51-3-.61-4.48,0-.39,0-.87.36-1.05a.72.72,0,0,1,.38-.07,1.39,1.39,0,0,1,1.1.85,3.65,3.65,0,0,1,.28,1.43,33.26,33.26,0,0,1-.07,5C176.38,172.35,175.44,171.58,175.21,170.82Z" fill="#c2dd47"/>
      <path d="M176.89,170.56a6.3,6.3,0,0,1,.35-1.34c.46-1.44.61-3,1.07-4.4.12-.38.33-.8.72-.85a.67.67,0,0,1,.37.08,1.39,1.39,0,0,1,.72,1.19,3.78,3.78,0,0,1-.26,1.44A35.55,35.55,0,0,1,178,171.3C177.42,172.41,176.82,171.35,176.89,170.56Z" fill="#c2dd47"/>
      <path d="M173.31,171.28a6.82,6.82,0,0,1-.59-1.25c-.57-1.4-1.44-2.66-2-4.05-.15-.37-.26-.83,0-1.12a.72.72,0,0,1,.33-.18,1.41,1.41,0,0,1,1.33.45,4.07,4.07,0,0,1,.72,1.27,34.1,34.1,0,0,1,1.52,4.75C174.91,172.36,173.77,171.93,173.31,171.28Z" fill="#c2dd47"/>
      <path d="M171.22,169.42a5.45,5.45,0,1,0,9.54,0Z" fill="#ededed"/>
      <path d="M180.76,169.42h-1.39a5.34,5.34,0,0,1,.68,2.63,5.45,5.45,0,0,1-4.75,5.41c.22,0,.45,0,.69,0a5.45,5.45,0,0,0,4.77-8.08Z" fill="#d6d6d6"/>
      <rect x="171.68" y="175.95" width="8.61" height="1.92" rx="0.96" fill="#c6c6c6"/>
      <path d="M179.47,176h-1.71a.89.89,0,0,1,.88.89V177a.89.89,0,0,1-.88.89h1.71a.89.89,0,0,0,.89-.89v-.14A.89.89,0,0,0,179.47,176Z" fill="#b2b2b2"/>
    </g>
  </g>
</svg>
