<svg id="Layer_1" data-name="Layer 1" xmlns="http://www.w3.org/2000/svg" xmlns:xlink="http://www.w3.org/1999/xlink" viewBox="0 0 844.11 1924.55">
  <defs>
    <linearGradient id="linear-gradient" x1="203.41" y1="2512.36" x2="674.54" y2="1696.33" gradientTransform="matrix(0.98, 0, 0, 3.26, -1.72, -5902.82)" gradientUnits="userSpaceOnUse">
      <stop offset="0" stop-color="#051937"/>
      <stop offset="0" stop-color="#032747"/>
      <stop offset="0" stop-color="#00476d"/>
      <stop offset="0.38" stop-color="#00496d"/>
      <stop offset="0.56" stop-color="#00516d"/>
      <stop offset="0.69" stop-color="#005d6c"/>
      <stop offset="0.8" stop-color="#006f6b"/>
      <stop offset="0.9" stop-color="#00876a"/>
      <stop offset="0.99" stop-color="#00a369"/>
      <stop offset="1" stop-color="#00a969"/>
      <stop offset="1" stop-color="#00a76a"/>
      <stop offset="1" stop-color="#00a06d"/>
      <stop offset="1" stop-color="#009573"/>
      <stop offset="1" stop-color="#00847c"/>
      <stop offset="1" stop-color="#007981"/>
    </linearGradient>
  </defs>
  <title>menu</title>
  <rect x="0.69" y="0.3" width="842.74" height="1923.96" fill="url(#linear-gradient)"/>
</svg>
